{
    "views_path": "{theme_path}/views",
    "page_view": "page.view.php",
    "browsers": [
        "full",
        "mobile",
        "lite"
    ],
    "styles": [
        "{theme_path}/res/style.css"
    ],
    "scripts": [
        "{theme_path}/res/controllers.js"
    ],
    "favicon": "/favicon.ico",
    "dependencies": [
        "jquery",
        "dcms_client_model",
        "angular",
        "highcharts",
        "angular_highcharts",
        "angular_pagination",
        "angular_elastic",
        "notifications"
    ]
}