{
    "dependencies":[
    ],
    "controller_filename": "controller.php",
    "routes": {
        "/": "index"
    },
    "response_postprocess": {
        "":""
    },
    "request_preprocess": {
        "":""
    },
    "install": {

    },
    "settings_url": "",
    "theme_dependencies": {

    },
    "hooks": {
        "": ""
    }
}